<svg width="37" height="37" viewBox="0 0 37 37" fill="none" xmlns="http://www.w3.org/2000/svg">
<path d="M18.5 0C8.28372 0 0 8.28372 0 18.5C0 28.7163 8.28372 37 18.5 37C28.7163 37 37 28.7163 37 18.5C37 8.28372 28.7163 0 18.5 0ZM28.0877 25.6298C28.0877 26.249 27.8251 26.8494 27.3654 27.2622C26.9057 27.6843 26.2865 27.8907 25.658 27.8344C23.519 27.6374 21.4645 27.0745 19.5319 26.1552C17.6557 25.2639 15.9577 24.0631 14.4848 22.5809C13.0119 21.108 11.8111 19.41 10.9105 17.5337C9.99113 15.6012 9.42825 13.5467 9.23124 11.4077C9.22186 11.342 9.22186 11.2764 9.22186 11.2013C9.22186 10.6478 9.42825 10.1131 9.8035 9.7003C10.2257 9.24062 10.8167 8.97794 11.4359 8.97794H14.4097C15.5355 8.97794 16.483 9.82226 16.6143 10.9386C16.6894 11.5953 16.8207 12.252 17.0177 12.8806C17.2617 13.6686 17.0459 14.5223 16.4736 15.0946L15.2728 16.3048C16.5393 18.6126 18.4625 20.5357 20.7703 21.8022L21.9805 20.592C22.5621 20.0104 23.4064 19.804 24.2039 20.0479C24.8324 20.2449 25.4891 20.3763 26.1458 20.4513C27.2622 20.5733 28.1065 21.5208 28.1065 22.6559V25.6298H28.0877Z" fill="#8CC04D"/>
</svg>
